# File exported by Houdini 17.0.416 (www.sidefx.com)
# 328 points
# 1224 vertices
# 306 primitives
# Bounds: [-9.05833912, -0.5, -102.077194] to [9.05833912, 11.0379725, -46.4771996]
g 
v -6.5 -0.5 -102.077194
v 6.5 -0.5 -102.077194
v 6.5 -0.5 -46.4771996
v -6.5 -0.5 -46.4771996
v -6.5 0.5 -102.077194
v 6.5 0.5 -102.077194
v 6.5 0.5 -46.4771996
v -6.5 0.5 -46.4771996
v -5.02031517 0 -100.418922
v -8.51237774 0 -100.18335
v -8.57968521 0 -101.181084
v -5.08762217 0 -101.416656
v -5.48076868 10.1114998 -100.387863
v -8.97283173 10.1114998 -100.15229
v -9.04013824 10.1114998 -101.150017
v -5.54807568 10.1114998 -101.385597
v -6.37481642 8.96595001 -100.327553
v -5.02031517 8.96595001 -100.418922
v -5.08762217 8.96595001 -101.416656
v -6.44212389 8.96595001 -101.325279
v -8.51237774 1.79456997 -100.18335
v -5.02031517 1.79456997 -100.418922
v -5.08762217 1.79456997 -101.416656
v -8.57968521 1.79456997 -101.181084
v -6.37481642 2.48971009 -100.327553
v -5.02031517 2.48971009 -100.418922
v -5.08762217 2.48971009 -101.416656
v -6.44212389 2.48971009 -101.325279
v -8.51237774 9.65279007 -100.18335
v -5.02031517 9.65279007 -100.418922
v -5.08762217 9.65279007 -101.416656
v -8.57968521 9.65279007 -101.181084
v -4.10153246 10.5792627 -100.480904
v -4.56198597 11.0379725 -100.449844
v -4.62929344 11.0379725 -101.447578
v -4.16883993 10.5792627 -101.478638
v -2.99605012 10.5792627 -100.555481
v -3.45650363 11.0379725 -100.524422
v -3.5238111 11.0379725 -101.522156
v -3.06335759 10.5792627 -101.553215
v -5.01676702 0 -87.9108887
v -8.50642872 0 -87.642067
v -8.58323288 0 -88.6391144
v -5.09357166 0 -88.9079361
v -5.47690392 10.1114998 -87.8754425
v -8.96656609 10.1114998 -87.6066284
v -9.04337025 10.1114998 -88.6036682
v -5.55370808 10.1114998 -88.8724899
v -6.37033701 8.96595001 -87.8066177
v -5.01676702 8.96595001 -87.9108887
v -5.09357166 8.96595001 -88.9079361
v -6.44714165 8.96595001 -88.8036652
v -8.50642872 1.79456997 -87.642067
v -5.01676702 1.79456997 -87.9108887
v -5.09357166 1.79456997 -88.9079361
v -8.58323288 1.79456997 -88.6391144
v -6.37033701 2.48971009 -87.8066177
v -5.01676702 2.48971009 -87.9108887
v -5.09357166 2.48971009 -88.9079361
v -6.44714165 2.48971009 -88.8036652
v -8.50642872 9.65279007 -87.642067
v -5.01676702 9.65279007 -87.9108887
v -5.09357166 9.65279007 -88.9079361
v -8.58323288 9.65279007 -88.6391144
v -4.09861612 10.5792627 -87.9816132
v -4.55875301 11.0379725 -87.946167
v -4.63555813 11.0379725 -88.9432144
v -4.17542076 10.5792627 -88.9786606
v -2.99389386 10.5792627 -88.0667114
v -3.45403099 11.0379725 -88.0312653
v -3.53083563 11.0379725 -89.0283127
v -3.0706985 10.5792627 -89.0637589
v -5.01230431 0 -75.4084702
v -8.49828625 0 -75.0955353
v -8.58769608 0 -76.0915298
v -5.10171366 0 -76.4044647
v -5.47195625 10.1114998 -75.3672104
v -8.95793819 10.1114998 -75.0542755
v -9.04734802 10.1114998 -76.0502701
v -5.5613656 10.1114998 -76.363205
v -6.36444712 8.96595001 -75.2870865
v -5.01230431 8.96595001 -75.4084702
v -5.10171366 8.96595001 -76.4044647
v -6.45385647 8.96595001 -76.2830811
v -8.49828625 1.79456997 -75.0955353
v -5.01230431 1.79456997 -75.4084702
v -5.10171366 1.79456997 -76.4044647
v -8.58769608 1.79456997 -76.0915298
v -6.36444712 2.48971009 -75.2870865
v -5.01230431 2.48971009 -75.4084702
v -5.10171366 2.48971009 -76.4044647
v -6.45385647 2.48971009 -76.2830811
v -8.49828625 9.65279007 -75.0955353
v -5.01230431 9.65279007 -75.4084702
v -5.10171366 9.65279007 -76.4044647
v -8.58769608 9.65279007 -76.0915298
v -4.09512186 10.5792627 -75.4908066
v -4.55477333 11.0379725 -75.4495392
v -4.64418316 11.0379725 -76.4455338
v -4.18453121 10.5792627 -76.4868011
v -2.99156427 10.5792627 -75.5898666
v -3.45121622 11.0379725 -75.5486069
v -3.54062557 11.0379725 -76.5446014
v -3.08097363 10.5792627 -76.5858612
v -5.006567 0 -62.9150047
v -8.48649788 0 -62.5407295
v -8.59343338 0 -63.5349922
v -5.1135025 0 -63.9092674
v -5.46542072 10.1114998 -62.865654
v -8.9453516 10.1114998 -62.4913788
v -9.0522871 10.1114998 -63.4856415
v -5.57235622 10.1114998 -63.8599167
v -6.35636234 8.96595001 -62.7698288
v -5.006567 8.96595001 -62.9150047
v -5.1135025 8.96595001 -63.9092674
v -6.46329832 8.96595001 -63.7640953
v -8.48649788 1.79456997 -62.5407295
v -5.006567 1.79456997 -62.9150047
v -5.1135025 1.79456997 -63.9092674
v -8.59343338 1.79456997 -63.5349922
v -6.35636234 2.48971009 -62.7698288
v -5.006567 2.48971009 -62.9150047
v -5.1135025 2.48971009 -63.9092674
v -6.46329832 2.48971009 -63.7640953
v -8.48649788 9.65279007 -62.5407295
v -5.006567 9.65279007 -62.9150047
v -5.1135025 9.65279007 -63.9092674
v -8.59343338 9.65279007 -63.5349922
v -4.09097672 10.5792627 -63.0134773
v -4.54983044 11.0379725 -62.9641266
v -4.65676594 11.0379725 -63.9583931
v -4.19791222 10.5792627 -64.0077438
v -2.98933506 10.5792627 -63.1319618
v -3.44818878 11.0379725 -63.0826111
v -3.55512428 11.0379725 -64.0768738
v -3.09627056 10.5792627 -64.1262283
v -4.9990654 0 -50.4370689
v -8.46800327 0 -49.9718056
v -8.60093498 0 -50.9629326
v -5.13199711 0 -51.428196
v -5.45646954 10.1114998 -50.375721
v -8.92540741 10.1114998 -49.9104576
v -9.05833912 10.1114998 -50.9015846
v -5.58940125 10.1114998 -51.366848
v -6.34459686 8.96595001 -50.2566032
v -4.9990654 8.96595001 -50.4370689
v -5.13199711 8.96595001 -51.428196
v -6.47752905 8.96595001 -51.2477303
v -8.46800327 1.79456997 -49.9718056
v -4.9990654 1.79456997 -50.4370689
v -5.13199711 1.79456997 -51.428196
v -8.60093498 1.79456997 -50.9629326
v -6.34459686 2.48971009 -50.2566032
v -4.9990654 2.48971009 -50.4370689
v -5.13199711 2.48971009 -51.428196
v -6.47752905 2.48971009 -51.2477303
v -8.46800327 9.65279007 -49.9718056
v -4.9990654 9.65279007 -50.4370689
v -5.13199711 9.65279007 -51.428196
v -8.60093498 9.65279007 -50.9629326
v -4.08636665 10.5792627 -50.5594826
v -4.54377174 11.0379725 -50.4981346
v -4.67670345 11.0379725 -51.4892578
v -4.21929932 10.5792627 -51.5506058
v -2.98820543 10.5792627 -50.7067719
v -3.44560981 11.0379725 -50.6454239
v -3.57854199 11.0379725 -51.6365471
v -3.12113762 10.5792627 -51.6978951
v 5.02031517 0 -100.418922
v 8.51237774 0 -100.18335
v 8.57968521 0 -101.181084
v 5.08762217 0 -101.416656
v 5.48076868 10.1114998 -100.387863
v 8.97283173 10.1114998 -100.15229
v 9.04013824 10.1114998 -101.150017
v 5.54807568 10.1114998 -101.385597
v 6.37481642 8.96595001 -100.327553
v 5.02031517 8.96595001 -100.418922
v 5.08762217 8.96595001 -101.416656
v 6.44212389 8.96595001 -101.325279
v 8.51237774 1.79456997 -100.18335
v 5.02031517 1.79456997 -100.418922
v 5.08762217 1.79456997 -101.416656
v 8.57968521 1.79456997 -101.181084
v 6.37481642 2.48971009 -100.327553
v 5.02031517 2.48971009 -100.418922
v 5.08762217 2.48971009 -101.416656
v 6.44212389 2.48971009 -101.325279
v 8.51237774 9.65279007 -100.18335
v 5.02031517 9.65279007 -100.418922
v 5.08762217 9.65279007 -101.416656
v 8.57968521 9.65279007 -101.181084
v 4.10153246 10.5792627 -100.480904
v 4.56198597 11.0379725 -100.449844
v 4.62929344 11.0379725 -101.447578
v 4.16883993 10.5792627 -101.478638
v 2.99605012 10.5792627 -100.555481
v 3.45650363 11.0379725 -100.524422
v 3.5238111 11.0379725 -101.522156
v 3.06335759 10.5792627 -101.553215
v 5.01676702 0 -87.9108887
v 8.50642872 0 -87.642067
v 8.58323288 0 -88.6391144
v 5.09357166 0 -88.9079361
v 5.47690392 10.1114998 -87.8754425
v 8.96656609 10.1114998 -87.6066284
v 9.04337025 10.1114998 -88.6036682
v 5.55370808 10.1114998 -88.8724899
v 6.37033701 8.96595001 -87.8066177
v 5.01676702 8.96595001 -87.9108887
v 5.09357166 8.96595001 -88.9079361
v 6.44714165 8.96595001 -88.8036652
v 8.50642872 1.79456997 -87.642067
v 5.01676702 1.79456997 -87.9108887
v 5.09357166 1.79456997 -88.9079361
v 8.58323288 1.79456997 -88.6391144
v 6.37033701 2.48971009 -87.8066177
v 5.01676702 2.48971009 -87.9108887
v 5.09357166 2.48971009 -88.9079361
v 6.44714165 2.48971009 -88.8036652
v 8.50642872 9.65279007 -87.642067
v 5.01676702 9.65279007 -87.9108887
v 5.09357166 9.65279007 -88.9079361
v 8.58323288 9.65279007 -88.6391144
v 4.09861612 10.5792627 -87.9816132
v 4.55875301 11.0379725 -87.946167
v 4.63555813 11.0379725 -88.9432144
v 4.17542076 10.5792627 -88.9786606
v 2.99389386 10.5792627 -88.0667114
v 3.45403099 11.0379725 -88.0312653
v 3.53083563 11.0379725 -89.0283127
v 3.0706985 10.5792627 -89.0637589
v 5.01230431 0 -75.4084702
v 8.49828625 0 -75.0955353
v 8.58769608 0 -76.0915298
v 5.10171366 0 -76.4044647
v 5.47195625 10.1114998 -75.3672104
v 8.95793819 10.1114998 -75.0542755
v 9.04734802 10.1114998 -76.0502701
v 5.5613656 10.1114998 -76.363205
v 6.36444712 8.96595001 -75.2870865
v 5.01230431 8.96595001 -75.4084702
v 5.10171366 8.96595001 -76.4044647
v 6.45385647 8.96595001 -76.2830811
v 8.49828625 1.79456997 -75.0955353
v 5.01230431 1.79456997 -75.4084702
v 5.10171366 1.79456997 -76.4044647
v 8.58769608 1.79456997 -76.0915298
v 6.36444712 2.48971009 -75.2870865
v 5.01230431 2.48971009 -75.4084702
v 5.10171366 2.48971009 -76.4044647
v 6.45385647 2.48971009 -76.2830811
v 8.49828625 9.65279007 -75.0955353
v 5.01230431 9.65279007 -75.4084702
v 5.10171366 9.65279007 -76.4044647
v 8.58769608 9.65279007 -76.0915298
v 4.09512186 10.5792627 -75.4908066
v 4.55477333 11.0379725 -75.4495392
v 4.64418316 11.0379725 -76.4455338
v 4.18453121 10.5792627 -76.4868011
v 2.99156427 10.5792627 -75.5898666
v 3.45121622 11.0379725 -75.5486069
v 3.54062557 11.0379725 -76.5446014
v 3.08097363 10.5792627 -76.5858612
v 5.006567 0 -62.9150047
v 8.48649788 0 -62.5407295
v 8.59343338 0 -63.5349922
v 5.1135025 0 -63.9092674
v 5.46542072 10.1114998 -62.865654
v 8.9453516 10.1114998 -62.4913788
v 9.0522871 10.1114998 -63.4856415
v 5.57235622 10.1114998 -63.8599167
v 6.35636234 8.96595001 -62.7698288
v 5.006567 8.96595001 -62.9150047
v 5.1135025 8.96595001 -63.9092674
v 6.46329832 8.96595001 -63.7640953
v 8.48649788 1.79456997 -62.5407295
v 5.006567 1.79456997 -62.9150047
v 5.1135025 1.79456997 -63.9092674
v 8.59343338 1.79456997 -63.5349922
v 6.35636234 2.48971009 -62.7698288
v 5.006567 2.48971009 -62.9150047
v 5.1135025 2.48971009 -63.9092674
v 6.46329832 2.48971009 -63.7640953
v 8.48649788 9.65279007 -62.5407295
v 5.006567 9.65279007 -62.9150047
v 5.1135025 9.65279007 -63.9092674
v 8.59343338 9.65279007 -63.5349922
v 4.09097672 10.5792627 -63.0134773
v 4.54983044 11.0379725 -62.9641266
v 4.65676594 11.0379725 -63.9583931
v 4.19791222 10.5792627 -64.0077438
v 2.98933506 10.5792627 -63.1319618
v 3.44818878 11.0379725 -63.0826111
v 3.55512428 11.0379725 -64.0768738
v 3.09627056 10.5792627 -64.1262283
v 4.9990654 0 -50.4370689
v 8.46800327 0 -49.9718056
v 8.60093498 0 -50.9629326
v 5.13199711 0 -51.428196
v 5.45646954 10.1114998 -50.375721
v 8.92540741 10.1114998 -49.9104576
v 9.05833912 10.1114998 -50.9015846
v 5.58940125 10.1114998 -51.366848
v 6.34459686 8.96595001 -50.2566032
v 4.9990654 8.96595001 -50.4370689
v 5.13199711 8.96595001 -51.428196
v 6.47752905 8.96595001 -51.2477303
v 8.46800327 1.79456997 -49.9718056
v 4.9990654 1.79456997 -50.4370689
v 5.13199711 1.79456997 -51.428196
v 8.60093498 1.79456997 -50.9629326
v 6.34459686 2.48971009 -50.2566032
v 4.9990654 2.48971009 -50.4370689
v 5.13199711 2.48971009 -51.428196
v 6.47752905 2.48971009 -51.2477303
v 8.46800327 9.65279007 -49.9718056
v 4.9990654 9.65279007 -50.4370689
v 5.13199711 9.65279007 -51.428196
v 8.60093498 9.65279007 -50.9629326
v 4.08636665 10.5792627 -50.5594826
v 4.54377174 11.0379725 -50.4981346
v 4.67670345 11.0379725 -51.4892578
v 4.21929932 10.5792627 -51.5506058
v 2.98820543 10.5792627 -50.7067719
v 3.44560981 11.0379725 -50.6454239
v 3.57854199 11.0379725 -51.6365471
v 3.12113762 10.5792627 -51.6978951
vn 0 0 0
vn 0 0 0
vn 0 0 0
vn 0 0 0
vn 0 0 0
vn 0 0 0
vn 0 0 0
vn 0 0 0
vn -6.80000019 0 -100.800003
vn -6.80000019 0 -100.800003
vn -6.80000019 0 -100.800003
vn -6.80000019 0 -100.800003
vn -6.80000019 0 -100.800003
vn -6.80000019 0 -100.800003
vn -6.80000019 0 -100.800003
vn -6.80000019 0 -100.800003
vn -6.80000019 0 -100.800003
vn -6.80000019 0 -100.800003
vn -6.80000019 0 -100.800003
vn -6.80000019 0 -100.800003
vn -6.80000019 0 -100.800003
vn -6.80000019 0 -100.800003
vn -6.80000019 0 -100.800003
vn -6.80000019 0 -100.800003
vn -6.80000019 0 -100.800003
vn -6.80000019 0 -100.800003
vn -6.80000019 0 -100.800003
vn -6.80000019 0 -100.800003
vn -6.80000019 0 -100.800003
vn -6.80000019 0 -100.800003
vn -6.80000019 0 -100.800003
vn -6.80000019 0 -100.800003
vn -6.80000019 0 -100.800003
vn -6.80000019 0 -100.800003
vn -6.80000019 0 -100.800003
vn -6.80000019 0 -100.800003
vn -6.80000019 0 -100.800003
vn -6.80000019 0 -100.800003
vn -6.80000019 0 -100.800003
vn -6.80000019 0 -100.800003
vn -6.80000019 0 -88.2750015
vn -6.80000019 0 -88.2750015
vn -6.80000019 0 -88.2750015
vn -6.80000019 0 -88.2750015
vn -6.80000019 0 -88.2750015
vn -6.80000019 0 -88.2750015
vn -6.80000019 0 -88.2750015
vn -6.80000019 0 -88.2750015
vn -6.80000019 0 -88.2750015
vn -6.80000019 0 -88.2750015
vn -6.80000019 0 -88.2750015
vn -6.80000019 0 -88.2750015
vn -6.80000019 0 -88.2750015
vn -6.80000019 0 -88.2750015
vn -6.80000019 0 -88.2750015
vn -6.80000019 0 -88.2750015
vn -6.80000019 0 -88.2750015
vn -6.80000019 0 -88.2750015
vn -6.80000019 0 -88.2750015
vn -6.80000019 0 -88.2750015
vn -6.80000019 0 -88.2750015
vn -6.80000019 0 -88.2750015
vn -6.80000019 0 -88.2750015
vn -6.80000019 0 -88.2750015
vn -6.80000019 0 -88.2750015
vn -6.80000019 0 -88.2750015
vn -6.80000019 0 -88.2750015
vn -6.80000019 0 -88.2750015
vn -6.80000019 0 -88.2750015
vn -6.80000019 0 -88.2750015
vn -6.80000019 0 -88.2750015
vn -6.80000019 0 -88.2750015
vn -6.80000019 0 -75.75
vn -6.80000019 0 -75.75
vn -6.80000019 0 -75.75
vn -6.80000019 0 -75.75
vn -6.80000019 0 -75.75
vn -6.80000019 0 -75.75
vn -6.80000019 0 -75.75
vn -6.80000019 0 -75.75
vn -6.80000019 0 -75.75
vn -6.80000019 0 -75.75
vn -6.80000019 0 -75.75
vn -6.80000019 0 -75.75
vn -6.80000019 0 -75.75
vn -6.80000019 0 -75.75
vn -6.80000019 0 -75.75
vn -6.80000019 0 -75.75
vn -6.80000019 0 -75.75
vn -6.80000019 0 -75.75
vn -6.80000019 0 -75.75
vn -6.80000019 0 -75.75
vn -6.80000019 0 -75.75
vn -6.80000019 0 -75.75
vn -6.80000019 0 -75.75
vn -6.80000019 0 -75.75
vn -6.80000019 0 -75.75
vn -6.80000019 0 -75.75
vn -6.80000019 0 -75.75
vn -6.80000019 0 -75.75
vn -6.80000019 0 -75.75
vn -6.80000019 0 -75.75
vn -6.80000019 0 -75.75
vn -6.80000019 0 -75.75
vn -6.80000019 0 -63.2249985
vn -6.80000019 0 -63.2249985
vn -6.80000019 0 -63.2249985
vn -6.80000019 0 -63.2249985
vn -6.80000019 0 -63.2249985
vn -6.80000019 0 -63.2249985
vn -6.80000019 0 -63.2249985
vn -6.80000019 0 -63.2249985
vn -6.80000019 0 -63.2249985
vn -6.80000019 0 -63.2249985
vn -6.80000019 0 -63.2249985
vn -6.80000019 0 -63.2249985
vn -6.80000019 0 -63.2249985
vn -6.80000019 0 -63.2249985
vn -6.80000019 0 -63.2249985
vn -6.80000019 0 -63.2249985
vn -6.80000019 0 -63.2249985
vn -6.80000019 0 -63.2249985
vn -6.80000019 0 -63.2249985
vn -6.80000019 0 -63.2249985
vn -6.80000019 0 -63.2249985
vn -6.80000019 0 -63.2249985
vn -6.80000019 0 -63.2249985
vn -6.80000019 0 -63.2249985
vn -6.80000019 0 -63.2249985
vn -6.80000019 0 -63.2249985
vn -6.80000019 0 -63.2249985
vn -6.80000019 0 -63.2249985
vn -6.80000019 0 -63.2249985
vn -6.80000019 0 -63.2249985
vn -6.80000019 0 -63.2249985
vn -6.80000019 0 -63.2249985
vn -6.80000019 0 -50.7000008
vn -6.80000019 0 -50.7000008
vn -6.80000019 0 -50.7000008
vn -6.80000019 0 -50.7000008
vn -6.80000019 0 -50.7000008
vn -6.80000019 0 -50.7000008
vn -6.80000019 0 -50.7000008
vn -6.80000019 0 -50.7000008
vn -6.80000019 0 -50.7000008
vn -6.80000019 0 -50.7000008
vn -6.80000019 0 -50.7000008
vn -6.80000019 0 -50.7000008
vn -6.80000019 0 -50.7000008
vn -6.80000019 0 -50.7000008
vn -6.80000019 0 -50.7000008
vn -6.80000019 0 -50.7000008
vn -6.80000019 0 -50.7000008
vn -6.80000019 0 -50.7000008
vn -6.80000019 0 -50.7000008
vn -6.80000019 0 -50.7000008
vn -6.80000019 0 -50.7000008
vn -6.80000019 0 -50.7000008
vn -6.80000019 0 -50.7000008
vn -6.80000019 0 -50.7000008
vn -6.80000019 0 -50.7000008
vn -6.80000019 0 -50.7000008
vn -6.80000019 0 -50.7000008
vn -6.80000019 0 -50.7000008
vn -6.80000019 0 -50.7000008
vn -6.80000019 0 -50.7000008
vn -6.80000019 0 -50.7000008
vn -6.80000019 0 -50.7000008
vn 6.80000019 0 -100.800003
vn 6.80000019 0 -100.800003
vn 6.80000019 0 -100.800003
vn 6.80000019 0 -100.800003
vn 6.80000019 0 -100.800003
vn 6.80000019 0 -100.800003
vn 6.80000019 0 -100.800003
vn 6.80000019 0 -100.800003
vn 6.80000019 0 -100.800003
vn 6.80000019 0 -100.800003
vn 6.80000019 0 -100.800003
vn 6.80000019 0 -100.800003
vn 6.80000019 0 -100.800003
vn 6.80000019 0 -100.800003
vn 6.80000019 0 -100.800003
vn 6.80000019 0 -100.800003
vn 6.80000019 0 -100.800003
vn 6.80000019 0 -100.800003
vn 6.80000019 0 -100.800003
vn 6.80000019 0 -100.800003
vn 6.80000019 0 -100.800003
vn 6.80000019 0 -100.800003
vn 6.80000019 0 -100.800003
vn 6.80000019 0 -100.800003
vn 6.80000019 0 -100.800003
vn 6.80000019 0 -100.800003
vn 6.80000019 0 -100.800003
vn 6.80000019 0 -100.800003
vn 6.80000019 0 -100.800003
vn 6.80000019 0 -100.800003
vn 6.80000019 0 -100.800003
vn 6.80000019 0 -100.800003
vn 6.80000019 0 -88.2750015
vn 6.80000019 0 -88.2750015
vn 6.80000019 0 -88.2750015
vn 6.80000019 0 -88.2750015
vn 6.80000019 0 -88.2750015
vn 6.80000019 0 -88.2750015
vn 6.80000019 0 -88.2750015
vn 6.80000019 0 -88.2750015
vn 6.80000019 0 -88.2750015
vn 6.80000019 0 -88.2750015
vn 6.80000019 0 -88.2750015
vn 6.80000019 0 -88.2750015
vn 6.80000019 0 -88.2750015
vn 6.80000019 0 -88.2750015
vn 6.80000019 0 -88.2750015
vn 6.80000019 0 -88.2750015
vn 6.80000019 0 -88.2750015
vn 6.80000019 0 -88.2750015
vn 6.80000019 0 -88.2750015
vn 6.80000019 0 -88.2750015
vn 6.80000019 0 -88.2750015
vn 6.80000019 0 -88.2750015
vn 6.80000019 0 -88.2750015
vn 6.80000019 0 -88.2750015
vn 6.80000019 0 -88.2750015
vn 6.80000019 0 -88.2750015
vn 6.80000019 0 -88.2750015
vn 6.80000019 0 -88.2750015
vn 6.80000019 0 -88.2750015
vn 6.80000019 0 -88.2750015
vn 6.80000019 0 -88.2750015
vn 6.80000019 0 -88.2750015
vn 6.80000019 0 -75.75
vn 6.80000019 0 -75.75
vn 6.80000019 0 -75.75
vn 6.80000019 0 -75.75
vn 6.80000019 0 -75.75
vn 6.80000019 0 -75.75
vn 6.80000019 0 -75.75
vn 6.80000019 0 -75.75
vn 6.80000019 0 -75.75
vn 6.80000019 0 -75.75
vn 6.80000019 0 -75.75
vn 6.80000019 0 -75.75
vn 6.80000019 0 -75.75
vn 6.80000019 0 -75.75
vn 6.80000019 0 -75.75
vn 6.80000019 0 -75.75
vn 6.80000019 0 -75.75
vn 6.80000019 0 -75.75
vn 6.80000019 0 -75.75
vn 6.80000019 0 -75.75
vn 6.80000019 0 -75.75
vn 6.80000019 0 -75.75
vn 6.80000019 0 -75.75
vn 6.80000019 0 -75.75
vn 6.80000019 0 -75.75
vn 6.80000019 0 -75.75
vn 6.80000019 0 -75.75
vn 6.80000019 0 -75.75
vn 6.80000019 0 -75.75
vn 6.80000019 0 -75.75
vn 6.80000019 0 -75.75
vn 6.80000019 0 -75.75
vn 6.80000019 0 -63.2249985
vn 6.80000019 0 -63.2249985
vn 6.80000019 0 -63.2249985
vn 6.80000019 0 -63.2249985
vn 6.80000019 0 -63.2249985
vn 6.80000019 0 -63.2249985
vn 6.80000019 0 -63.2249985
vn 6.80000019 0 -63.2249985
vn 6.80000019 0 -63.2249985
vn 6.80000019 0 -63.2249985
vn 6.80000019 0 -63.2249985
vn 6.80000019 0 -63.2249985
vn 6.80000019 0 -63.2249985
vn 6.80000019 0 -63.2249985
vn 6.80000019 0 -63.2249985
vn 6.80000019 0 -63.2249985
vn 6.80000019 0 -63.2249985
vn 6.80000019 0 -63.2249985
vn 6.80000019 0 -63.2249985
vn 6.80000019 0 -63.2249985
vn 6.80000019 0 -63.2249985
vn 6.80000019 0 -63.2249985
vn 6.80000019 0 -63.2249985
vn 6.80000019 0 -63.2249985
vn 6.80000019 0 -63.2249985
vn 6.80000019 0 -63.2249985
vn 6.80000019 0 -63.2249985
vn 6.80000019 0 -63.2249985
vn 6.80000019 0 -63.2249985
vn 6.80000019 0 -63.2249985
vn 6.80000019 0 -63.2249985
vn 6.80000019 0 -63.2249985
vn 6.80000019 0 -50.7000008
vn 6.80000019 0 -50.7000008
vn 6.80000019 0 -50.7000008
vn 6.80000019 0 -50.7000008
vn 6.80000019 0 -50.7000008
vn 6.80000019 0 -50.7000008
vn 6.80000019 0 -50.7000008
vn 6.80000019 0 -50.7000008
vn 6.80000019 0 -50.7000008
vn 6.80000019 0 -50.7000008
vn 6.80000019 0 -50.7000008
vn 6.80000019 0 -50.7000008
vn 6.80000019 0 -50.7000008
vn 6.80000019 0 -50.7000008
vn 6.80000019 0 -50.7000008
vn 6.80000019 0 -50.7000008
vn 6.80000019 0 -50.7000008
vn 6.80000019 0 -50.7000008
vn 6.80000019 0 -50.7000008
vn 6.80000019 0 -50.7000008
vn 6.80000019 0 -50.7000008
vn 6.80000019 0 -50.7000008
vn 6.80000019 0 -50.7000008
vn 6.80000019 0 -50.7000008
vn 6.80000019 0 -50.7000008
vn 6.80000019 0 -50.7000008
vn 6.80000019 0 -50.7000008
vn 6.80000019 0 -50.7000008
vn 6.80000019 0 -50.7000008
vn 6.80000019 0 -50.7000008
vn 6.80000019 0 -50.7000008
vn 6.80000019 0 -50.7000008
g 
f 2//2 1//1 5//5 6//6
f 3//3 2//2 6//6 7//7
f 4//4 3//3 7//7 8//8
f 1//1 4//4 8//8 5//5
f 3//3 4//4 1//1 2//2
f 6//6 5//5 8//8 7//7
f 11//11 12//12 9//9 10//10
f 14//14 13//13 16//16 15//15
f 22//22 21//21 10//10 9//9
f 23//23 22//22 9//9 12//12
f 24//24 23//23 12//12 11//11
f 21//21 24//24 11//11 10//10
f 25//25 26//26 18//18 17//17
f 26//26 25//25 21//21 22//22
f 26//26 27//27 19//19 18//18
f 27//27 26//26 22//22 23//23
f 27//27 28//28 20//20 19//19
f 28//28 27//27 23//23 24//24
f 28//28 25//25 17//17 20//20
f 25//25 28//28 24//24 21//21
f 29//29 30//30 13//13 14//14
f 30//30 29//29 17//17 18//18
f 31//31 30//30 18//18 19//19
f 31//31 32//32 15//15 16//16
f 32//32 31//31 19//19 20//20
f 32//32 29//29 14//14 15//15
f 29//29 32//32 20//20 17//17
f 30//30 33//33 34//34 13//13
f 13//13 34//34 35//35 16//16
f 16//16 35//35 36//36 31//31
f 31//31 36//36 33//33 30//30
f 37//37 40//40 39//39 38//38
f 33//33 37//37 38//38 34//34
f 34//34 38//38 39//39 35//35
f 35//35 39//39 40//40 36//36
f 36//36 40//40 37//37 33//33
f 43//43 44//44 41//41 42//42
f 46//46 45//45 48//48 47//47
f 54//54 53//53 42//42 41//41
f 55//55 54//54 41//41 44//44
f 56//56 55//55 44//44 43//43
f 53//53 56//56 43//43 42//42
f 57//57 58//58 50//50 49//49
f 58//58 57//57 53//53 54//54
f 58//58 59//59 51//51 50//50
f 59//59 58//58 54//54 55//55
f 59//59 60//60 52//52 51//51
f 60//60 59//59 55//55 56//56
f 60//60 57//57 49//49 52//52
f 57//57 60//60 56//56 53//53
f 61//61 62//62 45//45 46//46
f 62//62 61//61 49//49 50//50
f 63//63 62//62 50//50 51//51
f 63//63 64//64 47//47 48//48
f 64//64 63//63 51//51 52//52
f 64//64 61//61 46//46 47//47
f 61//61 64//64 52//52 49//49
f 62//62 65//65 66//66 45//45
f 45//45 66//66 67//67 48//48
f 48//48 67//67 68//68 63//63
f 63//63 68//68 65//65 62//62
f 69//69 72//72 71//71 70//70
f 65//65 69//69 70//70 66//66
f 66//66 70//70 71//71 67//67
f 67//67 71//71 72//72 68//68
f 68//68 72//72 69//69 65//65
f 75//75 76//76 73//73 74//74
f 78//78 77//77 80//80 79//79
f 86//86 85//85 74//74 73//73
f 87//87 86//86 73//73 76//76
f 88//88 87//87 76//76 75//75
f 85//85 88//88 75//75 74//74
f 89//89 90//90 82//82 81//81
f 90//90 89//89 85//85 86//86
f 90//90 91//91 83//83 82//82
f 91//91 90//90 86//86 87//87
f 91//91 92//92 84//84 83//83
f 92//92 91//91 87//87 88//88
f 92//92 89//89 81//81 84//84
f 89//89 92//92 88//88 85//85
f 93//93 94//94 77//77 78//78
f 94//94 93//93 81//81 82//82
f 95//95 94//94 82//82 83//83
f 95//95 96//96 79//79 80//80
f 96//96 95//95 83//83 84//84
f 96//96 93//93 78//78 79//79
f 93//93 96//96 84//84 81//81
f 94//94 97//97 98//98 77//77
f 77//77 98//98 99//99 80//80
f 80//80 99//99 100//100 95//95
f 95//95 100//100 97//97 94//94
f 101//101 104//104 103//103 102//102
f 97//97 101//101 102//102 98//98
f 98//98 102//102 103//103 99//99
f 99//99 103//103 104//104 100//100
f 100//100 104//104 101//101 97//97
f 107//107 108//108 105//105 106//106
f 110//110 109//109 112//112 111//111
f 118//118 117//117 106//106 105//105
f 119//119 118//118 105//105 108//108
f 120//120 119//119 108//108 107//107
f 117//117 120//120 107//107 106//106
f 121//121 122//122 114//114 113//113
f 122//122 121//121 117//117 118//118
f 122//122 123//123 115//115 114//114
f 123//123 122//122 118//118 119//119
f 123//123 124//124 116//116 115//115
f 124//124 123//123 119//119 120//120
f 124//124 121//121 113//113 116//116
f 121//121 124//124 120//120 117//117
f 125//125 126//126 109//109 110//110
f 126//126 125//125 113//113 114//114
f 127//127 126//126 114//114 115//115
f 127//127 128//128 111//111 112//112
f 128//128 127//127 115//115 116//116
f 128//128 125//125 110//110 111//111
f 125//125 128//128 116//116 113//113
f 126//126 129//129 130//130 109//109
f 109//109 130//130 131//131 112//112
f 112//112 131//131 132//132 127//127
f 127//127 132//132 129//129 126//126
f 133//133 136//136 135//135 134//134
f 129//129 133//133 134//134 130//130
f 130//130 134//134 135//135 131//131
f 131//131 135//135 136//136 132//132
f 132//132 136//136 133//133 129//129
f 139//139 140//140 137//137 138//138
f 142//142 141//141 144//144 143//143
f 150//150 149//149 138//138 137//137
f 151//151 150//150 137//137 140//140
f 152//152 151//151 140//140 139//139
f 149//149 152//152 139//139 138//138
f 153//153 154//154 146//146 145//145
f 154//154 153//153 149//149 150//150
f 154//154 155//155 147//147 146//146
f 155//155 154//154 150//150 151//151
f 155//155 156//156 148//148 147//147
f 156//156 155//155 151//151 152//152
f 156//156 153//153 145//145 148//148
f 153//153 156//156 152//152 149//149
f 157//157 158//158 141//141 142//142
f 158//158 157//157 145//145 146//146
f 159//159 158//158 146//146 147//147
f 159//159 160//160 143//143 144//144
f 160//160 159//159 147//147 148//148
f 160//160 157//157 142//142 143//143
f 157//157 160//160 148//148 145//145
f 158//158 161//161 162//162 141//141
f 141//141 162//162 163//163 144//144
f 144//144 163//163 164//164 159//159
f 159//159 164//164 161//161 158//158
f 165//165 168//168 167//167 166//166
f 161//161 165//165 166//166 162//162
f 162//162 166//166 167//167 163//163
f 163//163 167//167 168//168 164//164
f 164//164 168//168 165//165 161//161
f 171//171 170//170 169//169 172//172
f 174//174 175//175 176//176 173//173
f 182//182 169//169 170//170 181//181
f 183//183 172//172 169//169 182//182
f 184//184 171//171 172//172 183//183
f 181//181 170//170 171//171 184//184
f 185//185 177//177 178//178 186//186
f 186//186 182//182 181//181 185//185
f 186//186 178//178 179//179 187//187
f 187//187 183//183 182//182 186//186
f 187//187 179//179 180//180 188//188
f 188//188 184//184 183//183 187//187
f 188//188 180//180 177//177 185//185
f 185//185 181//181 184//184 188//188
f 189//189 174//174 173//173 190//190
f 190//190 178//178 177//177 189//189
f 191//191 179//179 178//178 190//190
f 191//191 176//176 175//175 192//192
f 192//192 180//180 179//179 191//191
f 192//192 175//175 174//174 189//189
f 189//189 177//177 180//180 192//192
f 190//190 173//173 194//194 193//193
f 173//173 176//176 195//195 194//194
f 176//176 191//191 196//196 195//195
f 191//191 190//190 193//193 196//196
f 197//197 198//198 199//199 200//200
f 193//193 194//194 198//198 197//197
f 194//194 195//195 199//199 198//198
f 195//195 196//196 200//200 199//199
f 196//196 193//193 197//197 200//200
f 203//203 202//202 201//201 204//204
f 206//206 207//207 208//208 205//205
f 214//214 201//201 202//202 213//213
f 215//215 204//204 201//201 214//214
f 216//216 203//203 204//204 215//215
f 213//213 202//202 203//203 216//216
f 217//217 209//209 210//210 218//218
f 218//218 214//214 213//213 217//217
f 218//218 210//210 211//211 219//219
f 219//219 215//215 214//214 218//218
f 219//219 211//211 212//212 220//220
f 220//220 216//216 215//215 219//219
f 220//220 212//212 209//209 217//217
f 217//217 213//213 216//216 220//220
f 221//221 206//206 205//205 222//222
f 222//222 210//210 209//209 221//221
f 223//223 211//211 210//210 222//222
f 223//223 208//208 207//207 224//224
f 224//224 212//212 211//211 223//223
f 224//224 207//207 206//206 221//221
f 221//221 209//209 212//212 224//224
f 222//222 205//205 226//226 225//225
f 205//205 208//208 227//227 226//226
f 208//208 223//223 228//228 227//227
f 223//223 222//222 225//225 228//228
f 229//229 230//230 231//231 232//232
f 225//225 226//226 230//230 229//229
f 226//226 227//227 231//231 230//230
f 227//227 228//228 232//232 231//231
f 228//228 225//225 229//229 232//232
f 235//235 234//234 233//233 236//236
f 238//238 239//239 240//240 237//237
f 246//246 233//233 234//234 245//245
f 247//247 236//236 233//233 246//246
f 248//248 235//235 236//236 247//247
f 245//245 234//234 235//235 248//248
f 249//249 241//241 242//242 250//250
f 250//250 246//246 245//245 249//249
f 250//250 242//242 243//243 251//251
f 251//251 247//247 246//246 250//250
f 251//251 243//243 244//244 252//252
f 252//252 248//248 247//247 251//251
f 252//252 244//244 241//241 249//249
f 249//249 245//245 248//248 252//252
f 253//253 238//238 237//237 254//254
f 254//254 242//242 241//241 253//253
f 255//255 243//243 242//242 254//254
f 255//255 240//240 239//239 256//256
f 256//256 244//244 243//243 255//255
f 256//256 239//239 238//238 253//253
f 253//253 241//241 244//244 256//256
f 254//254 237//237 258//258 257//257
f 237//237 240//240 259//259 258//258
f 240//240 255//255 260//260 259//259
f 255//255 254//254 257//257 260//260
f 261//261 262//262 263//263 264//264
f 257//257 258//258 262//262 261//261
f 258//258 259//259 263//263 262//262
f 259//259 260//260 264//264 263//263
f 260//260 257//257 261//261 264//264
f 267//267 266//266 265//265 268//268
f 270//270 271//271 272//272 269//269
f 278//278 265//265 266//266 277//277
f 279//279 268//268 265//265 278//278
f 280//280 267//267 268//268 279//279
f 277//277 266//266 267//267 280//280
f 281//281 273//273 274//274 282//282
f 282//282 278//278 277//277 281//281
f 282//282 274//274 275//275 283//283
f 283//283 279//279 278//278 282//282
f 283//283 275//275 276//276 284//284
f 284//284 280//280 279//279 283//283
f 284//284 276//276 273//273 281//281
f 281//281 277//277 280//280 284//284
f 285//285 270//270 269//269 286//286
f 286//286 274//274 273//273 285//285
f 287//287 275//275 274//274 286//286
f 287//287 272//272 271//271 288//288
f 288//288 276//276 275//275 287//287
f 288//288 271//271 270//270 285//285
f 285//285 273//273 276//276 288//288
f 286//286 269//269 290//290 289//289
f 269//269 272//272 291//291 290//290
f 272//272 287//287 292//292 291//291
f 287//287 286//286 289//289 292//292
f 293//293 294//294 295//295 296//296
f 289//289 290//290 294//294 293//293
f 290//290 291//291 295//295 294//294
f 291//291 292//292 296//296 295//295
f 292//292 289//289 293//293 296//296
f 299//299 298//298 297//297 300//300
f 302//302 303//303 304//304 301//301
f 310//310 297//297 298//298 309//309
f 311//311 300//300 297//297 310//310
f 312//312 299//299 300//300 311//311
f 309//309 298//298 299//299 312//312
f 313//313 305//305 306//306 314//314
f 314//314 310//310 309//309 313//313
f 314//314 306//306 307//307 315//315
f 315//315 311//311 310//310 314//314
f 315//315 307//307 308//308 316//316
f 316//316 312//312 311//311 315//315
f 316//316 308//308 305//305 313//313
f 313//313 309//309 312//312 316//316
f 317//317 302//302 301//301 318//318
f 318//318 306//306 305//305 317//317
f 319//319 307//307 306//306 318//318
f 319//319 304//304 303//303 320//320
f 320//320 308//308 307//307 319//319
f 320//320 303//303 302//302 317//317
f 317//317 305//305 308//308 320//320
f 318//318 301//301 322//322 321//321
f 301//301 304//304 323//323 322//322
f 304//304 319//319 324//324 323//323
f 319//319 318//318 321//321 324//324
f 325//325 326//326 327//327 328//328
f 321//321 322//322 326//326 325//325
f 322//322 323//323 327//327 326//326
f 323//323 324//324 328//328 327//327
f 324//324 321//321 325//325 328//328
